Programming in R for Data Science
…
---

# augment()

Returns data frame of model output related to
original data points

```r
lm_car %>% augment()
```

```
## # A tibble: 62 x 9
##    price income .fitted .se.fit .resid   .hat .sigma  .cooksd .std.resid
##    <int>  <int>   <dbl>   <dbl>  <dbl>  <dbl>  <dbl>    <dbl>      <dbl>
##  1 13600  40000  14319.    322.  -719. 0.0171  2478. 0.000759     -0.295
##  2 10500  16500   9353.    534.  1147. 0.0471  2475. 0.00564       0.478
##  3 14000  18000   9670.    516.  4330. 0.0439  2412. 0.0745        1.80 
##  4 18000  42000  14742.    316.  3258. 0.0165  2443. 0.0150        1.34 
##  5  7500  25000  11149.    436. -3649. 0.0315  2432. 0.0369       -1.51 
##  6 22500  81000  22984.    624.  -484. 0.0644  2479. 0.00142      -0.203
##  7 21000  52000  16855.    329.  4145. 0.0179  2419. 0.0263        1.70 
##  8 11000  30000  12206.    387. -1206. 0.0248  2475. 0.00314      -0.497
##  9 14500  44000  15165.    313.  -665. 0.0162  2478. 0.000611     -0.272
## 10 14800  40000  14319.    322.   481. 0.0171  2479. 0.000339      0.197
## # ... with 52 more rows
```

---

# augment()

Combined with the original `car_price` data frame

```r
lm_car %>% augment(car_price)
```

```
## # A tibble: 62 x 14
##      sex income   age married children college price .fitted .se.fit .resid
##    <int>  <int> <int>   <int>    <int>   <int> <int>   <dbl>   <dbl>  <dbl>
##  1     1  40000    48       1        3       0 13600  14319.    322.  -719.
##  2     0  16500    24       0        0       1 10500   9353.    534.  1147.
##  3     1  18000    25       0        0       1 14000   9670.    516.  4330.
##  4     1  42000    37       1        2       1 18000  14742.    316.  3258.
##  5     0  25000    34       1        1       0  7500  11149.    436. -3649.
##  6     1  81000    50       1        3       1 22500  22984.    624.  -484.
##  7     1  52000    29       1        2       1 21000  16855.    329.  4145.
##  8     0  30000    34       0        0       0 11000  12206.    387. -1206.
##  9     0  44000    36       0        1       1 14500  15165.    313.  -665.
## 10     1  40000    33       1        2       1 14800  14319.    322.   481.
## # ... with 52 more rows, and 4 more variables: .hat <dbl>, .sigma <dbl>,
## #   .cooksd <dbl>, .std.resid <dbl>
```
…
